Comprehensive Example
…
and

\[\eta = \exp\left(\mu\right).\]

Data: Shock Absorber

To apply the introduced methods of non-parametric failure probability estimation and probability plotting the shock data is used. In this dataset kilometer-dependent problems that have occurred on shock absorbers are reported. In addition to failed items the dataset also contains non-defectives (censored) observations. The data can be found in Statistical Methods for Reliability Data 3.

For consistent handling of the data, weibulltools introduces the function reliability_data() that converts the original dataset into a wt_reliability_data object. This formatted object allows to easily apply the presented methods.

shock_tbl <- reliability_data(data = shock, x = distance, status = status)
shock_tbl
#> Reliability Data with characteristic x: 'distance':
#> # A tibble: 38 x 3
#>        x status id   
#>    <int>  <dbl> <chr>
#>  1  6700      1 ID1  
#>  2  6950      0 ID2  
#>  3  7820      0 ID3  
#>  4  8790      0 ID4  
#>  5  9120      1 ID5  
#>  6  9660      0 ID6  
#>  7  9820      0 ID7  
#>  8 11310      0 ID8  
#>  9 11690      0 ID9  
#> 10 11850      0 ID10 
#> # ... with 28 more rows
…
# Second case where both, survived and failed units are considered:
cdf_tbl_john <- cdf_tbl %>% filter(cdf_estimation_method == "johnson") 
cdf_tbl_john
#> CDF estimation for method 'johnson':
#> # A tibble: 38 x 6
#>    id        x status  rank    prob cdf_estimation_method
#>    <chr> <int>  <dbl> <dbl>   <dbl> <chr>                
#>  1 ID1    6700      1  1     0.0182 johnson              
#>  2 ID2    6950      0 NA    NA      johnson              
#>  3 ID3    7820      0 NA    NA      johnson              
#>  4 ID4    8790      0 NA    NA      johnson              
#>  5 ID5    9120      1  2.09  0.0465 johnson              
#>  6 ID6    9660      0 NA    NA      johnson              
#>  7 ID7    9820      0 NA    NA      johnson              
#>  8 ID8   11310      0 NA    NA      johnson              
#>  9 ID9   11690      0 NA    NA      johnson              
#> 10 ID10  11850      0 NA    NA      johnson              
#> # ... with 28 more rows
…
Data

To apply the introduced parameter estimation methods the shock and alloy datasets are used.

Shock Absorber

In this dataset kilometer-dependent problems that have occurred on shock absorbers are reported. In addition to failed items the dataset also contains non-defectives (censored) observations. The data can be found in Statistical Methods for Reliability Data 7.

For consistent handling of the data, weibulltools introduces the function reliability_data() that converts the original dataset into a wt_reliability_data object. This formatted object allows to easily apply the presented methods.

shock_tbl <- reliability_data(data = shock, x = distance, status = status)
shock_tbl
#> Reliability Data with characteristic x: 'distance':
#> # A tibble: 38 x 3
#>        x status id   
#>    <int>  <dbl> <chr>
#>  1  6700      1 ID1  
#>  2  6950      0 ID2  
#>  3  7820      0 ID3  
#>  4  8790      0 ID4  
#>  5  9120      1 ID5  
#>  6  9660      0 ID6  
#>  7  9820      0 ID7  
#>  8 11310      0 ID8  
#>  9 11690      0 ID9  
#> 10 11850      0 ID10 
#> # ... with 28 more rows

Alloy T7989

The dataset alloy in which the cycles until a fatigue failure of a special alloy occurs are inspected. The data is also taken from Meeker and Escobar 8.

Again, the data have to be formatted as a wt_reliability_data object:

# Data: 
alloy_tbl <- reliability_data(data = alloy, x = cycles, status = status)
alloy_tbl
#> Reliability Data with characteristic x: 'cycles':
#> # A tibble: 72 x 3
#>        x status id   
#>    <dbl>  <dbl> <chr>
#>  1   300      0 ID1  
#>  2   300      0 ID2  
#>  3   300      0 ID3  
#>  4   300      0 ID4  
#>  5   300      0 ID5  
#>  6   291      1 ID6  
#>  7   274      1 ID7  
#>  8   271      1 ID8  
#>  9   269      1 ID9  
#> 10   257      1 ID10 
#> # ... with 62 more rows
…
Segmented regression aims to detect breakpoints in the sample data from which a split in subgroups can be made. The expectation-maximization (EM) algorithm is a computation-intensive method that iteratively tries to maximize a likelihood function, which is weighted by posterior probabilities. These are conditional probabilities that an observation belongs to subgroup k.

In the following, the focus is on the application of these methods and their visualizations using the functions mixmod_regression(), mixmod_em(), plot_prob() and plot_mod().

Data: Voltage Stress Test

To apply the introduced methods the dataset voltage is used. The dataset contains observations for units that were passed to a high voltage stress test. hours indicates the number of hours until a failure occurs or the number of hours until a unit was taken out of the test and has not failed. status is a flag variable and describes the condition of a unit. If a unit has failed the flag is 1 and 0 otherwise. The dataset is taken from Reliability Analysis by Failure Mode 9.

For consistent handling of the data, weibulltools introduces the function reliability_data() that converts the original dataset into a wt_reliability_data object. This formatted object allows to easily apply the presented methods.

voltage_tbl <- reliability_data(data = voltage, x = hours, status = status)
voltage_tbl
#> Reliability Data with characteristic x: 'hours':
#> # A tibble: 58 x 3
#>        x status id   
#>    <dbl>  <dbl> <chr>
#>  1     2      1 ID1  
#>  2    28      1 ID2  
#>  3    67      0 ID3  
#>  4   119      1 ID4  
#>  5   179      0 ID5  
#>  6   236      1 ID6  
#>  7   282      1 ID7  
#>  8   317      1 ID8  
#>  9   348      1 ID9  
#> 10   387      1 ID10 
#> # ... with 48 more rows
…
